^C:\Users\Lyzard\Desktop\Bitbucket\TheDurkest\proj.win32\TheDurkest.vcxproj
C:\Users\Lyzard\Desktop\Bitbucket\TheDurkest\proj.win32\Release.win32\TheDurkest.lib
C:\Users\Lyzard\Desktop\Bitbucket\TheDurkest\proj.win32\Release.win32\TheDurkest.exp
^C:\Users\Lyzard\Desktop\Bitbucket\TheDurkest\proj.win32\TheDurkest.vcxproj
C:\Users\Lyzard\Desktop\Bitbucket\TheDurkest\proj.win32\Release.win32\TheDurkest.lib
C:\Users\Lyzard\Desktop\Bitbucket\TheDurkest\proj.win32\Release.win32\TheDurkest.exp
^TheDurkest
C:\Users\Lyzard\Desktop\Bitbucket\TheDurkest\proj.win32\TheDurkest.cab
